<svg xmlns="http://www.w3.org/2000/svg" viewBox="0 0 1380 470">

  <path d="M380.51 178.292h-73.493l-26.777 112.76h76.342v31.066h-83.748l-28.486 119.088h-33.043l29.055-119.088H132.684l-28.486 119.088H71.155l29.055-119.088H35.833V291.05h71.784l26.776-112.76H60.33v-29.34h81.47L169.716 32.74h33.043L174.273 148.95H281.95L309.866 32.74h33.043L314.423 148.95h66.087zm-132.743 112.76l26.776-112.76H166.867l-26.776 112.76z" fill="#d03b3b" stroke="#d03b3b" stroke-width="13.53068032"></path>

  <path d="M369.676 178.292h-73.494l-26.776 112.76h76.342v31.066H262l-28.486 119.088H200.47l29.056-119.088H121.85L93.364 441.206H60.32l29.056-119.088H24.998V291.05h71.784l26.777-112.76H49.496v-29.34h81.47L158.88 32.74h33.044L163.439 148.95h107.676L299.031 32.74h33.043L303.59 148.95h66.087zm-132.744 112.76l26.777-112.76H156.033l-26.777 112.76z" fill="#680084" stroke="#680084" stroke-width="12.6268144"></path>

  <path d="M498.077 310.036V28.712h38.74v281.324zm0 131.17v-64.434h38.74v64.434z" fill="#d03b3b" stroke="#d03b3b" stroke-width="13.53068032"></path>

  <path d="M487.243 310.036V28.712h38.74v281.324zm0 131.17v-64.434h38.74v64.434z" fill="#680084" stroke="#680084" stroke-width="12.6268144"></path>

  <path fill="#d03b3b" d="M682.288 420.365h651.608V49.91H682.288zm679.027 27.688H654.866V22.22h706.45z"></path>

  <path fill="#d03b3b" d="M1151.183 401.269H863.66v-56.877h287.523zM779.668 159.3h-56.326v-56.876h56.326zM779.668 241.29h-56.326v-56.877h56.326zM779.668 321.28h-56.326v-56.879h56.326zM864.973 159.3h-56.327v-56.876h56.327zM864.973 241.29h-56.327v-56.877h56.327zM864.973 321.28h-56.327v-56.879h56.327zM950.277 159.3h-56.324v-56.876h56.324zM950.277 241.29h-56.324v-56.877h56.324zM950.277 321.28h-56.324v-56.879h56.324zM1035.584 159.3h-56.326v-56.876h56.326zM1035.584 241.29h-56.326v-56.877h56.326zM1035.584 321.28h-56.326v-56.879h56.326zM1120.889 159.3h-56.327v-56.876h56.327zM1120.889 241.29h-56.327v-56.877h56.327zM1120.889 321.28h-56.327v-56.879h56.327zM1206.192 159.3h-56.322v-56.876h56.322zM1206.192 241.29h-56.322v-56.877h56.322zM1206.192 321.28h-56.322v-56.879h56.322zM1291.5 159.3h-56.327v-56.876h56.327zM1291.5 241.29h-56.327v-56.877h56.327zM1291.5 321.28h-56.327v-56.879h56.327z"></path>

  <path fill="#680084" stroke-width=".283" d="M669.716 420.365h651.61V49.91h-651.61zm679.028 27.688h-706.45V22.22h706.45z"></path>

  <path fill="#680084" stroke-width=".283" d="M1139.282 401.269H851.76v-56.877h287.523zM767.768 159.3H711.44v-56.876h56.327zM767.768 241.29H711.44v-56.877h56.327zM767.768 321.28H711.44v-56.879h56.327zM853.072 159.3h-56.326v-56.876h56.326zM853.072 241.29h-56.326v-56.877h56.326zM853.072 321.28h-56.326v-56.879h56.326zM938.377 159.3h-56.324v-56.876h56.324zM938.377 241.29h-56.324v-56.877h56.324zM938.377 321.28h-56.324v-56.879h56.324zM1023.684 159.3h-56.326v-56.876h56.326zM1023.684 241.29h-56.326v-56.877h56.326zM1023.684 321.28h-56.326v-56.879h56.326zM1108.988 159.3h-56.326v-56.876h56.326zM1108.988 241.29h-56.326v-56.877h56.326zM1108.988 321.28h-56.326v-56.879h56.326zM1194.293 159.3h-56.324v-56.876h56.324zM1194.293 241.29h-56.324v-56.877h56.324zM1194.293 321.28h-56.324v-56.879h56.324zM1279.6 159.3h-56.326v-56.876h56.326zM1279.6 241.29h-56.326v-56.877h56.326zM1279.6 321.28h-56.326v-56.879h56.326z"></path>

</svg>